{
    "searchname": "ExcessPayment",
    "searchFilterView": [
        {
            "ExcessMoney_Amount": {
                "-gt": 0
            }
        }
    ],
    "replaceChar": true,
    "replacementChars": {
        "_": ".",
        "-": "$"
    },
    "inTagsSearch": [],
    "notInTagsSearch": [],
    "operator": "or",
    "projections": {
        "_id": 0,
        "LoanNumber": 1,
        "LoanOnboardedDate": 1,
        "LoanFundedDate": 1,
        "LoanStartDate": 1,
        "LoanEndDate": 1,
        "ProductCategory": 1,
        "CurrentLoanScheduleNumber": 1,
        "CurrentLoanScheduleVersion": 1,
        "LoanAmount": 1,
        "Fundedamount": 1,
        "FundedDate": 1,
        "FirstPaymentDate": 1,
        "PaymentFrequency": 1,
        "FrequecyRate": 1,
        "PrimaryApplicantSalutation": 1,
        "PrimaryApplicantFirstName": 1,
        "PrimaryApplicantLastName": 1,
        "PrimaryApplicantMiddle": 1,
        "PrimaryApplicantPhoneNo": 1,
        "PrimaryApplicantAddressLine1": 1,
        "PrimaryApplicantAddressLine2": 1,
        "PrimaryApplicantCity": 1,
        "PrimaryApplicantState": 1,
        "PrimaryApplicantZip": 1,
        "PrimaryBusinessName": 1,
        "PrimaryBusinessAddressLine1": 1,
        "PrimaryBusinessAddressLine2": 1,
        "PrimaryBusinessCity": 1,
        "PrimaryBusinessState": 1,
        "PrimaryBusinessZip": 1,
        "PrimaryBusinessPhoneNo": 1,
        "Tenure": 1,
        "FactorRate": 1,
        "AnnualRate": 1,
        "StatusCode": 1,
        "StatusName": 1,
        "LoanProductId": 1,
        "StatusWorkFlowId": 1,
        "ProductPortfolioType": 1,
        "PBOC": 1,
        "PBOT": 1,
        "PaymentInfo": 1,
        "Due": 1,
        "ChargeOff": 1,
        "PayOff": 1,
        "SellOff": 1,
        "PaymentDetails": 1,
        "CreditLimit": 1,
        "AccrualStopDate": 1,
        "AutoPayStopDate": 1,
        "ExcessMoney": 1
    },
    "sorts": {
        "LoanNumber": -1
    },
    "exportFields": [
        "LoanNumber",
        "LoanProductId",
        "LoanOnboardedDate.Time.DateTime",
        "PrimaryBusinessName",
        "PrimaryApplicantSalutation",
        "PrimaryApplicantFirstName",
        "PrimaryApplicantLastName",
        "PrimaryBusinessPhoneNo",
        "PrimaryApplicantPhoneNo",
        "Fundedamount",
        "CreditLimit",
        "AnnualRate",
        "FactorRate",
        "Tenure",
        "PaymentFrequency",
        "PaymentInfo.PaidPrincipalAmount",
        "PBOT.TotalPrincipalOutStanding",
        "ExcessMoney.Amount"
    ],
    "exportFieldNames": [
        "Loan #",
        "Product",
        "Onboarded On",
        "Primary Business Name",
        "Primary Applicant Salutation",
        "Primary Applicant FirstName",
        "Primary Applicant LastName",
        "Primary Business PhoneNo",
        "Primary Applicant PhoneNo",
        "Funded Amount",
        "Credit Limit",
        "Interest Rate",
        "Factor",
        "Tenure",
        "Payment Frequency",
        "Paid Principal Amount",
        "Total Principal Outstanding",
        "Excess Money"
    ]
}