{
    "authToken": "yDaZzqCPy1opO9iU3dB0DlJWxapG9RuZiUF1ecNEvb7-o-vb_k0kYleKJFejbEGreEl1_tskOfrAOSLD2-h6jSYQ2PA-_4gLfq4IUzbT9Zs69GMp1qb6rU9OKmWi7t0gVo8s4cTlXGygAqlww3GTl7lODb8GbMXZvPqPjK-g1NzkUMdmu2TyMl9R1DlmjSaAuCkWKAFcCxt5CKw2PmTMa2uOnQeGYImY2QOieaKFrziOtjxFlJTO29UJbHa5EUoQ-FiqfmPlmAkwYZYvLV5DuCXhj_MaVlLpMonvigQcg55I3SqPi2CeqW-0GsTCxirlA6y48pwD-sWPRj7KIjQujJts8WhbQ_8KeF_pEfTWJQafElxUsW-yy24irpJfM30z2KZg0fS5RzIOmHchwKet-uOhKxnuUl1gadOM0vy2tsuhR5eh3UE9JJ-sYKssSZWamGI3Xt4qMzp70DoO3gSqbjIbwsE-gp5CsSdwU9Ipn4HiK2EoYkvD3B4i4oYyJyyY16blMSWs5SrwyWrP7Kwyl58wPcHKGdPvPFucQAYXW-5U183uzdl6_RHYTLswaIPXPZcMVtPGEcxC_Y1lMbSY7R1CSt76n_wbKUEvDvphoeSd8efBiO7BEFudZ19aFJBLBG6RjtwPcMHQe1fYCp_CsfwEBl0",
    "baseUrl": "https://api.bbb.org",
    "proxyUrl": "",
    "organizationSearchUrl": "/api/orgs/search",
    "useProxy": "true"
  }