{
    "provider": {
        "Host": "sftp",
        "InboxLocation": "/nacha/payment/inbox/",
        "ArchiveLocation": "/nacha/payment/archive/",
        "FailedLocation": "/nacha/payment/failed/",
        "DestinationFileLocation": "/lendfoundry/nacha/payment/download/",
        "Port": 22,
        "Protocol": "SFTP",
        "SshHostKey": "",
        "Username": "ach",
        "Password": "lendfoundry"
    },
    "CSVColumnFormat": [
        "ReferenceNumber",
        "InternalReferenceNumber",
        "ReturnCode",
        "ExecutionDate",
        "Reason",
        "Amount"
    ],
    "RejectedEventName": "AchInstructionRejected",
    "FailedFileName": "FailedPayments",
    "CronExpression": "0 0/3 * 1/1 * ? *",
    "database": "task-process-rejected-payments"
}