{
    "events": [
        {
            "Name": "ApplicationCreated",
            "ApplicationNumber": "{Data.Application.ApplicationNumber}",
            "ShouldUpdateAppFilterRecord": "true",
            "UpdateLastProgressDate": "true"
        },
        {
            "Name": "LeadCreatedRequest",
            "ApplicationNumber": "{Data.EntityId}",
            "ShouldUpdateAppFilterRecord": "true",
            "UpdateLastProgressDate": "true"
        },
        {
            "Name": "UpdateLeadRequested",
            "ApplicationNumber": "{Data.EntityId}",
            "ShouldUpdateAppFilterRecord": "true",
            "UpdateLastProgressDate": "true"
        },
        {
            "Name": "ApplicationSubmittedRequest",
            "ApplicationNumber": "{Data.EntityId}",
            "ShouldUpdateAppFilterRecord": "true",
            "UpdateLastProgressDate": "true"
        },
        {
            "Name": "ApplicationModified",
            "ApplicationNumber": "{Data.Application.ApplicationNumber}",
            "ShouldUpdateAppFilterRecord": "true",
            "UpdateLastProgressDate": "true"
        },
        {
            "Name": "ApplicationStatusChanged",
            "ApplicationNumber": "{Data.EntityId}",
            "ShouldUpdateAppFilterRecord": "true",
            "UpdateLastProgressDate": "true"
        },
        {
            "Name": "AgreementDocsOut",
            "ApplicationNumber": "{Data.EntityId}",
            "ShouldUpdateAppFilterRecord": "false",
            "UpdateLastProgressDate": "false"
        },
        {
            "Name": "BankLinked",
            "ApplicationNumber": "{Data.EntityId}",
            "ShouldUpdateAppFilterRecord": "false",
            "UpdateLastProgressDate": "false"
        },
        {
            "Name": "LoanAgreementSigned",
            "ApplicationNumber": "{Data.EntityId}",
            "ShouldUpdateAppFilterRecord": "false",
            "UpdateLastProgressDate": "false"
        },
        {
            "Name": "BankLinkRequest",
            "ApplicationNumber": "{Data.EntityId}",
            "ShouldUpdateAppFilterRecord": "false",
            "UpdateLastProgressDate": "false"
        },
        {
            "Name": "ApplicationAssignmentClaimed",
            "ApplicationNumber": "{Data.Assignment.EntityId}",
            "ShouldUpdateAppFilterRecord": "true",
            "UpdateLastProgressDate": "false"
        },
        {
            "Name": "ApplicationAssignmentAssigned",
            "ApplicationNumber": "{Data.Assignment.EntityId}",
            "ShouldUpdateAppFilterRecord": "true",
            "UpdateLastProgressDate": "false"
        },
        {
            "Name": "ApplicationAssignmentUnassigned",
            "ApplicationNumber": "{Data.Assignment.EntityId}",
            "ShouldUpdateAppFilterRecord": "true",
            "UpdateLastProgressDate": "false"
        },
        {
            "Name": "ApplicationAssignmentReleased",
            "ApplicationNumber": "{Data.Assignment.EntityId}",
            "ShouldUpdateAppFilterRecord": "true",
            "UpdateLastProgressDate": "false"
        },
        {
            "Name": "DealGenerated",
            "ApplicationNumber": "{Data.EntityId}",
            "ShouldUpdateAppFilterRecord": "true",
            "UpdateLastProgressDate": "false"
        },
        {
            "Name": "ApplicationFundingAdded",
            "ApplicationNumber": "{Data.EntityId}",
            "ShouldUpdateAppFilterRecord": "true",
            "UpdateLastProgressDate": "false"
        },
        {
            "Name": "ApplicationFundingStatusUpdated",
            "ApplicationNumber": "{Data.EntityId}",
            "ShouldUpdateAppFilterRecord": "true",
            "UpdateLastProgressDate": "false"
        },
        {
            "Name": "EventApplicationDeclined",
            "ApplicationNumber": "{Data.EntityId}",
            "ShouldUpdateAppFilterRecord": "true",
            "UpdateLastProgressDate": "true"
        },
        {
            "Name": "EventCallTloService",
            "ApplicationNumber": "{Data.EntityId}",
            "ShouldUpdateAppFilterRecord": "true",
            "UpdateLastProgressDate": "true"
        },
        {
            "Name": "EventProductDecision",
            "ApplicationNumber": "{Data.EntityId}",
            "ShouldUpdateAppFilterRecord": "true",
            "UpdateLastProgressDate": "true"
        },
        {
            "Name": "OfferComputed",
            "ApplicationNumber": "{Data.EntityId}",
            "ShouldUpdateAppFilterRecord": "true",
            "UpdateLastProgressDate": "true"
        },
        {
            "Name": "LoanAgreementOut",
            "ApplicationNumber": "{Data.EntityId}",
            "ShouldUpdateAppFilterRecord": "true",
            "UpdateLastProgressDate": "true"
        },
        {
            "Name": "PendingDocuSignRequest",
            "ApplicationNumber": "{Data.EntityId}",
            "ShouldUpdateAppFilterRecord": "true",
            "UpdateLastProgressDate": "true"
        },
        {
            "Name": "AgreementSignPending",
            "ApplicationNumber": "{Data.EntityId}",
            "ShouldUpdateAppFilterRecord": "true",
            "UpdateLastProgressDate": "true"
        },
        {
            "Name": "SignedLoanAgreement",
            "ApplicationNumber": "{Data.EntityId}",
            "ShouldUpdateAppFilterRecord": "true",
            "UpdateLastProgressDate": "true"
        },
        {
            "Name": "SignConsentForOtherOwners",
            "ApplicationNumber": "{Data.EntityId}",
            "ShouldUpdateAppFilterRecord": "true",
            "UpdateLastProgressDate": "true"
        },
        {
            "Name": "PerfectAuditStatementUploaded",
            "ApplicationNumber": "{Data.EntityId}",
            "ShouldUpdateAppFilterRecord": "true",
            "UpdateLastProgressDate": "true"
        },
        {

            "Name": "PlaidBankLinkingRefresh",
            "ApplicationNumber": "{Data.EntityId}",
            "ShouldUpdateAppFilterRecord": "false",
            "UpdateLastProgressDate": "false"
        },        
        {
            "Name": "PlaidBankLinkingReInit",
            "ApplicationNumber": "{Data.EntityId}",
            "ShouldUpdateAppFilterRecord": "false",
            "UpdateLastProgressDate": "false"
        },
        {
            "Name": "BankStatementUploaded",
            "ApplicationNumber": "{Data.EntityId}",
            "ShouldUpdateAppFilterRecord": "false",
            "UpdateLastProgressDate": "false"
        },
        {
            "Name": "RenewalEligible",
            "ApplicationNumber": "{Data.EntityId}",
            "ShouldUpdateAppFilterRecord": "true",
            "UpdateLastProgressDate": "true"
        },
        {
            "Name": "RenewalApplicationSubmitted",
            "ApplicationNumber": "{Data.EntityId}",
            "ShouldUpdateAppFilterRecord": "true",
            "UpdateLastProgressDate": "true"
        }

    ],
    "ExportTemplates": [
        {
            "TemplateName": "defaultTemplate",
            "FileNamePrefix": "FilterExport_",
            "Delimeter": "|",
            "CsvProjection": {
                "ApplicationNumber": "Application Number",
                "LegalBusinessName": "Legal Business Name",
                "BusinessEmail": "Business Email",
                "BusinessPhone": "Business Phone",
                "BusinessAddressLine1": "ApplicantAddressLine1",
                "BusinessAddressLine2": "ApplicantAddressLine2",
                "BusinessCity": "ApplicantAddressCity",
                "BusinessCountry": "ApplicantAddressCity",
                "Submitted": "Application Submitted Date"
            }
        }
    ],
    "Database":"application-filters-india"
}