{
    "events": [
        {
            "Name": "DrawDownInitiated",
            "DrawDownNumber": "{Data.EntityId}",
            "ShouldUpdateAppFilterRecord": "true",
            "UpdateLastProgressDate": "true"
        },
        {
            "Name": "DrawdownProcessStatusWorkFlow",
            "DrawDownNumber": "{Data.EntityId}",
            "ShouldUpdateAppFilterRecord": "true",
            "UpdateLastProgressDate": "false"
        },
        {
            "Name": "DrawdownProcessSubWorkFlow",
            "DrawDownNumber": "{Data.EntityId}",
            "ShouldUpdateAppFilterRecord": "true",
            "UpdateLastProgressDate": "false"
        },
        {
            "Name": "DrawdownSubStatusChanged",
            "DrawDownNumber": "{Data.EntityId}",
            "ShouldUpdateAppFilterRecord": "true",
            "UpdateLastProgressDate": "false"
        },
        {
            "Name": "DrawdownStatusChanged",
            "DrawDownNumber": "{Data.EntityId}",
            "ShouldUpdateAppFilterRecord": "true",
            "UpdateLastProgressDate": "false"
        },
        {
            "Name": "LoanAgreementOut",
            "DrawDownNumber": "{Data.EntityId}",
            "ShouldUpdateAppFilterRecord": "true",
            "UpdateLastProgressDate": "true"
        },
		{
            "Name": "DrawdownApproved",
            "DrawDownNumber": "{Data.EntityId}",
            "ShouldUpdateAppFilterRecord": "true",
            "UpdateLastProgressDate": "true"
        }
    ],
    "Database":"drawdown-filters"
}