{
    "products": {
        "mca": {
            "LOAN_ORIGINATION_FEE": "995411",
            "PER_DRAWDOWN_FEE": "995412",
            "INACTIVITY_FEE": "995413",
            "MAINTENANCE_FEE": "995414",
            "PREPAYMENT_FEE": "995415",
            "NSF_FEE": "995418",
            "LATE_FEE": "995417",
            "PAYOFF_DISCOUNT": "995418",
            "PrepaymentCharges": "995418",
            "OverdueCharges": "995417",
            "ChequeBounceCharges": "995418",
            "ChequeDishonorCharges": "995416",
            "ChequeSwapCharges": "995418"
        },
        "mcaloc": {
            "LOAN_ORIGINATION_FEE": "995411",
            "PER DRAWDOWN_FEE": "995412",
            "INACTIVITY_FEE": "995413",
            "MAINTENANCE_FEE": "995414",
            "PREPAYMENT_FEE": "995415",
            "NSF_FEE": "995416",
            "LATE_FEE": "995417"
        },
        "termloanIIFL": {
            "PrepaymentCharges": "995418",
            "OverdueCharges": "995418",
            "ChequeBounceCharges": "995418",
            "ChequeDishonorCharges": "995418",
            "ChequeSwapCharges": "995418",
            "SIECSDishonorcharges": "995418",
            "NoDues": "995418",
            "DocumentRetrieval": "995418",
            "DuplicateStatementCharges": "995418",
            "RepaymentScheduleCharges": "995418",
            "LOAN_ORIGINATION_FEE": "995418",
            "INACTIVITY_FEE": "995418",
            "PREPAYMENT_FEE": "995418",
            "NSF_FEE": "995418",
            "LATE_FEE": "995418",
            "PAYOFF_DISCOUNT": "995418",
            "PenalCharges": "995418",
            "PROCESSING_FEE": "995418"
        },
        "termloanFullerton": {
            "PrepaymentCharges": "995418",
            "OverdueCharges": "995418",
            "ChequeBounceCharges": "995418",
            "ChequeDishonorCharges": "995418",
            "ChequeSwapCharges": "995418",
            "SIECSDishonorcharges": "995418",
            "NoDues": "995418",
            "DocumentRetrieval": "995418",
            "DuplicateStatementCharges": "995418",
            "RepaymentScheduleCharges": "995418",
            "LOAN_ORIGINATION_FEE": "995418",
            "INACTIVITY_FEE": "995418",
            "PREPAYMENT_FEE": "995418",
            "NSF_FEE": "995418",
            "LATE_FEE": "995418",
            "PAYOFF_DISCOUNT": "995418",
            "PenalCharges": "995418",
            "PROCESSING_FEE": "995418"
        },
        "termloanDMI": {
            "LOAN_ORIGINATION_FEE": "995411",
            "PrepaymentCharges": "995418",
            "OverdueCharges": "995417",
            "ChequeBounceCharges": "995418",
            "ChequeDishonorCharges": "995416",
            "ChequeSwapCharges": "995418",
            "SIECSDishonorcharges": "995415",
            "NoDues": "995412",
            "DocumentRetrieval": "995414",
            "DuplicateStatementCharges": "995418",
            "RepaymentScheduleCharges": "995413"
        },
        "scf": {
            "PROCESSING_FEE": "995411",
            "LATE_FEE": "995412",
            "NSF_FEE": "995413",
            "PrepaymentCharges": "995418",
            "OverdueCharges": "995417",
            "ChequeBounceCharges": "995418",
            "ChequeDishonorCharges": "995416",
            "ChequeSwapCharges": "995418",
            "SIECSDishonorcharges": "995415",
            "NoDues": "995412",
            "DocumentRetrieval": "995414",
            "DuplicateStatementCharges": "995418",
            "RepaymentScheduleCharges": "995413"
        },
        "locbusiness": {
            "PROCESSING_FEE": "995418"
        }
    },
    "GST": {
        "995411": 10,
        "995412": 11,
        "995413": 12,
        "995414": 13,
        "995415": 14,
        "995416": 15,
        "995417": 16,
        "995418": 18
    }
}