{
    "0": "0-29 DPD",
    "1": "30-59 DPD",
    "2": "60-89 DPD",
    "3": "90-119 DPD",
    "4": "120-149 DPD",
    "5": "150-179 DPD",
    "6": "180+ DPD",
    "G": "Collection",
    "L": "Charge-off"
}