{
    "clientId": "5a3d0b75efe64e7803074d2a",
    "secret": "e9ef4801b9049cea498a1f8488925b",
    "baseUrl": "https://sandbox.plaid.com",
    "publicKey": "22ed4191ce719e185726a7ef70ea59",
    "isIdentityProduct": "false",
    "UseSimulation": "false",
    "SimulationURL": "http://{{internal_ip}}:7022/plaid",
    "clientName" : "LendFoundry Demo Tenant India",
    "apiVersion" : "v2",
    "env": "sandbox",
    "key" : "22ed4191ce719e185726a7ef70ea59",
    "product" : [
        "transactions"
    ],
    "selectAccount" : false,
    "WebhookUrl" : "{{plaid_Webhook_URL}}",
    "Database":"plaidv2ibv"
}