{
    "agricultural Production Crops": "01",
    "agricultural Services": "07 ",
    "animal Aquaculture": "0273",
    "animal Specialties, Not Elsewhere Classified": "0279",
    "beef Cattle Feedlots": "0211",
    "beef Cattle, Except Feedlots": "0212",
    "berry Crops": "0171",
    "broiler, Fryer, and Roaster Chickens": "0251",
    "cash Grains": "011",
    "cash Grains, Not Classified Elsewhere": "0119",
    "chicken Eggs": "0252",
    "citrus Fruits": "0174",
    "commercial Fishing": "091",
    "corn": "0115",
    "cotton": "0131",
    "cotton Ginning": "0724",
    "crop Harvesting, Primarily by Machine": "0722",
    "crop Planting, Cultivating, and Protecting": "0721",
    "crop Preparation Services for Market, Except Cotton Ginning": "0723",
    "crop Services": "072",
    "dairyFarms": "0241",
    "deciduous Tree Fruits": "0175",
    "farm Labor And Management Services": "076",
    "farm Labor Contractors and Crew Leaders": "0761",
    "farm Management Services": "0762",
    "field Crops, Except Cash Grains": "013",
    "field Crops, Except Cash Grains, Not Classified Elsewhere": "0139",
    "finfish": "0912",
    "fish Hatcheries And Preserves": "092",
    "fish Hatcheries and Preserves": "0921",
    "fishing, hunting, and trapping": "09",
    "food Crops Grown Under Cover": "0182",
    "forest Nurseries And Gathering Of Forest": "083",
    "forest Nurseries and Gathering of Forest Products": "0831",
    "forestry": "08",
    "forestry Services": "085",
    "forestryServices": "0851",
    "fruits and Tree Nuts": "017",
    "fruits and Tree Nuts, Not Classified Elsewhere": "0171",
    "fur-Bearing Animals and Rabbit": "0271",
    "general Farms, Primarily Crops": "019",
    "general Farms, Primarily Livestock And Animal": "029",
    "general Farms, Primarily Livestock and Animal Specialties": "0291",
    "general FarmsPrimarily Crops": "0191",
    "general Livestock, Except Dairy and Poultry": "0219",
    "grapes": "0172",
    "hog": "0213",
    "horses and Other Equines": "0272",
    "hunting And Trapping, And Game Propagation": "097",
    "hunting and Trapping, and Game Propagation": "0971",
    "irish Potatoes": "0134",
    "miscellaneous Marine Products": "0919",
    "ornamental Floriculture & Nursery Products": "0181",
    "poultry Hatcheries": "0254",
    "poultry and Eggs, Not Elsewhere Classified": "0259",
    "rice": "0112",
    "sheep and Goats": "0214",
    "shellfish": "0913",
    "soil Preparation Services": "071",
    "soilPreparationServices": "0711",
    "soybeans": "0116",
    "sugarcane & Sugar Beets": "0133",
    "timber Tracts": "081",
    "timberTracts": "0811",
    "tobacco": "0132",
    "tree Nuts": "0173",
    "turkeys and Turkey Eggs": "0253",
    "vegetables & Melons": "016",
    "vegetablesMelons": "0161",
    "wheat": "0111",
    "ironores2": "1011",
    "copperores2": "1021",
    "lead&zincores": "1031",
    "goldores": "1041",
    "goldoremining": "1041",
    "silveroremining": "1044",
    "metalminingservices2": "1081",
    "uranium-radium-vanadiumores": "1094",
    "miscmetalores,n.e.c.,&ferroalloyores,excvanadium": "1061",
    "copperore&nickeloremining(pt)": "1099",
    "bituminouscoal&lignite-surface": "1221",
    "bituminouscoal-underground": "1222",
    "anthracitemining1": "123",
    "anthracitemining2": "1231",
    "coalminingservices1": "124",
    "coalminingservices2": "1241",
    "crudepetroleum&naturalgas": "1311",
    "naturalgasliquids2": "1321",
    "drillingoil&gaswells1": "1381",
    "oil&gasexplorationservices": "1382",
    "oil&gasfieldservices,n.e.c.": "1389",
    "dimensionstone2": "1411",
    "crushed&brokenlimestone": "1422",
    "crushed&brokengranite": "1423",
    "crushed&brokenstone,n.e.c.": "1429",
    "constructionsand&gravel": "1442",
    "industrialsand": "1446",
    "kaolin&ballclay": "1455",
    "clay,ceramic,&refractoryminerals,n.e.c.": "1459",
    "potash,soda,&borateminerals": "1474",
    "phosphaterock": "1475",
    "chemical&fertilizermineralmining,n.e.c.": "1479",
    "nonmetallicmineralsservices,exceptfuels2": "1481",
    "miscellaneousnonmetallicminerals,exceptfuels2": "1499",
    "generalcontractors--residentialbuildings": "152",
    "generalcontractors--single-familyhouses": "1521",
    "generalcontractors--residentialbldgs,otherthansingle-family": "1522",
    "operativebuilders2": "1531",
    "generalcontractors--industrialbuildings&warehouses": "1541",
    "generalcontractors--nonresidentialbldgs,excindustbldgs/whses": "1542",
    "highway&streetconstructioncontractors,excelevatedhighways": "1611",
    "bridge,tunnel,&elevatedhighwayconstructioncontractors": "1622",
    "water,sewer,pipeline,&communications&powerlineconstr": "1623",
    "heavyconstruction,n.e.c.": "1629",
    "plumbing,heating,&air-conditioningspecialtradecontractors": "1711",
    "painting&paperhangingspecialtradecontractors": "1721",
    "electricalworkspecialtradecontractors1": "1731",
    "masonry,stonesetting,&othstoneworkspecialtradecontr": "1741",
    "plastering,drywall,acoustical,&insulworkspecialtradecontr": "1742",
    "terrazzo,tile,marble,&mosaicworkspecialtradecontractors": "1743",
    "carpentryworkspecialtradecontractors": "1751",
    "floorlaying&otherfloorworkspecialtradecontractors,n.e.c.": "1752",
    "roofing,siding,&sheetmetalworkspecialtradecontractors": "1761",
    "concreteworkspecialtradecontractors2": "1771",
    "waterwelldrillingspecialtradecontractors2": "1781",
    "structuralsteelerectionspecialtradecontractors": "1791",
    "glass&glazingworkspecialtradecontractors": "1793",
    "excavationworkspecialtradecontractors": "1794",
    "wrecking&demolitionworkspecialtradecontractors": "1795",
    "installorerectionofbldgequip,specialtradecontr,n.e.c.": "1796",
    "specialtradecontractors,n.e.c.": "1799",
    "cigarettes": "2111",
    "cigars": "2121",
    "chewing&smokingtobacco": "2131",
    "tobaccostemming&redrying": "2141",
    "explosives": "2892",
    "petroleumrefineries": "2911",
    "lubricatingoils&greases": "2992",
    "petroleum&coalproducts,n.e.c.": "2999",
    "smallarmsammunition": "3482",
    "ammunition,exceptsmallarms,n.e.c.": "3483",
    "smallarms": "3484",
    "ordnance&accessories,n.e.c.": "3489",
    "railroads, Line-Haul Operating": "4011",
    "railroad Switching and Terminal Establishments": "4013",
    "local & suburban transit": "4111",
    "other local passenger transportation": "4119",
    "taxi service1": "4121",
    "interurban & rural bus transportation": "4131",
    "charter bus service, local": "4141",
    "charter bus service, interstate/interurban": "4142",
    "school bus service": "4151",
    "bus terminal & service facilities": "4173",
    "local trucking without storage": "4212",
    "trucking, except local": "4213",
    "local trucking with storage": "4214",
    "courier services, except by air": "4215",
    "deep sea freight transportation": "4412",
    "coastal & intercoastal freight transportation": "4424",
    "great Lakes - St. Lawrence Seaway freight transportation1": "4432",
    "inland waterways freight transportation (except towing)": "4449",
    "deep sea passenger transportation, except by ferry": "4481",
    "ferry transportation": "4482",
    "excursion & sightseeing boats (including dinner cruises)": "4489",
    "marine cargo handling & operation of port & waterfront terminals": "4491",
    "tugboat service (including fleeting & harbor service)": "4492",
    "marinas": "4493",
    "commercial vessel rental & leasing": "4499",
    "scheduled air transportation": "4512",
    "air courier services": "4513",
    "nonscheduled air transportation1": "4522",
    "pipeline transportation of crude oil": "4612",
    "pipeline transportation of refined petroleum products": "4613",
    "all other pipeline transportation": "4619",
    "freight shipping services": "4731",
    "railroad car rental": "4741",
    "automobiles & other motor vehicles": "5012",
    "motor vehicle supplies & new parts": "5013",
    "tires & tubes": "5014",
    "motor vehicle parts, used": "5015",
    "furniture": "5021",
    "home furnishings": "5023",
    "lumber, plywood, millwork, & wood panels": "5031",
    "brick, stone, & related construction materials": "5032",
    "roofing, siding, & insulation materials": "5033",
    "other construction materials": "5039",
    "photographic equipment & supplies": "5043",
    "office equipment": "5044",
    "computers & computer peripheral equipment & supplies": "5045",
    "other commercial equipment": "5046",
    "medical, dental, & hospital equipment & supplies": "5047",
    "ophthalmic goods": "5048",
    "other professional equipment & supplies": "5049",
    "metals service centers & offices": "5051",
    "coal & other minerals & ores": "5052",
    "electrical apparatus & equip, wiring supplies, & construction mat": "5063",
    "electrical appliances, television & radio sets": "5064",
    "other electronic parts & equipment": "5065",
    "hardware": "5072",
    "plumbing & heating equipment & supplies": "5074",
    "warm air heating & air-conditioning equipment & supplies": "5075",
    "refrigeration equipment & supplies": "5078",
    "construction & mining (except petroleum) machinery & equipment": "5082",
    "farm & garden machinery & equipment": "5083",
    "industrial machinery & equipment": "5084",
    "industrial supplies": "5085",
    "service establishment equipment & supplies": "5087",
    "transportation equipment & supplies, except motor vehicles": "5088",
    "sporting & recreational goods & supplies": "5091",
    "toys & hobby goods & supplies": "5092",
    "recyclable materials": "5093",
    "jewelry, watches, silverware, precious stones, & precious metals": "5094",
    "durable goods, n.e.c.": "5099",
    "printing & writing paper": "5111",
    "stationery & office supplies": "5112",
    "industrial & personal service paper": "5113",
    "drugs, drug proprietaries, & druggists' sundries": "5122",
    "piece goods, notions, & other dry goods": "5131",
    "men's & boys' clothing & furnishings": "5136",
    "women's & children's & infants' clothing & accessories": "5137",
    "footwear": "5139",
    "groceries, general-line": "5141",
    "packaged frozen foods": "5142",
    "dairy products, except dried or canned": "5143",
    "poultry & poultry products": "5144",
    "confectionery": "5145",
    "fish & seafoods": "5146",
    "meats & meat products": "5147",
    "fresh fruits & vegetables": "5148",
    "other groceries & related products": "5149",
    "grain & field beans": "5153",
    "livestock": "5154",
    "other farm-product raw materials": "5159",
    "plastics materials & basic forms & shapes": "5162",
    "chemicals & allied products, n.e.c.": "5169",
    "petroleum bulk stations & terminals": "5171",
    "petroleum & petroleum products, except bulk stations & terminals": "5172",
    "beer & ale": "5181",
    "wine & distilled alcoholic beverages": "5182",
    "farm supplies": "5191",
    "books, periodicals, & newspapers": "5192",
    "flowers, nursery stock, & florists' supplies": "5193",
    "tobacco & tobacco products": "5194",
    "paints, varnishes, & supplies": "5198",
    "other miscellaneous nondurable goods": "5199",
    "new car dealers": "5511",
    "used car dealers": "5521",
    "gasoline service stations": "5541",
    "boat dealers": "5551",
    "recreational vehicle dealers": "5561",
    "motorcycle dealers": "5571",
    "automotive dealers, not elsewhere classified": "5599",
    "pawn shops": "5932",
    "gun shops": "5941",
    "catalog & mail-order houses": "5961",
    "fuel oil dealers": "5983",
    "liquefied petroleum gas (bottled gas) dealers": "5984",
    "fuel dealers, not elsewhere classified": "5989",
    "tobacco stores & stands": "5993",
    "federal reserve banks": "6011",
    "central reserve depository institutions, nec": "6019",
    "national commercial banks": "6021",
    "state commercial banks": "6022",
    "savings institutions, federally chartered": "6035",
    "savings institutions, not federally chartered": "6036",
    "credit unions (federally chartered)": "6061",
    "credit unions, not federally chartered": "6062",
    "agencies of foreign banks, primarily commercial finance": "6081",
    "foreign trade & international banking institutions": "6082",
    "nondeposit trust companies": "6091",
    "functions related to depository banking, nec": "6099",
    "federal & federally-sponsored credit agencies": "6111",
    "loan servicing": "6162",
    "loan brokers": "6163",
    "security brokers, dealers, & flotation companies": "6211",
    "commodity contracts brokers & dealers": "6221",
    "securities & commodity exchanges": "6231",
    "investment advice": "6282",
    "serv allied with the exchange of securities or commodities, nec": "6289",
    "life insurance": "6311",
    "accident & health insurance": "6321",
    "hospital & medical service plans": "6324",
    "fire, marine, & casualty insurance": "6331",
    "surety insurance": "6351",
    "title insurance": "6361",
    "pension, health, & welfare funds": "6371",
    "insurance carriers, nec": "6399",
    "insurance agents, brokers, & services": "6411",
    "operators of nonresidential buildings": "6512",
    "operators of apartment buildings": "6513",
    "operators of dwellings other than apartment buildings": "6514",
    "operators of residential mobile home sites": "6515",
    "lessors of railroad property": "6517",
    "lessors of real property, nec": "6519",
    "real estate agents & managers": "6531",
    "title abstract offices": "6541",
    "land subdividers & developers, except cemeteries": "6552",
    "cemetery subdividers & developers": "6553",
    "offices of bank holding companies": "6712",
    "offices of holding companies, nec": "6719",
    "educational, religious, & charitable trusts": "6732",
    "trusts, except educational, religious, & charitable": "6733",
    "oil royalty traders": "6792",
    "patent owners & lessors": "6794",
    "real estate investment trusts": "6798",
    "investors, nec": "6799",
    "legal services": "8111",
    "elementary & Secondary Schools": "8211",
    "colleges, Universities, Professional Schools": "8221",
    "junior Colleges and Technical Institutes": "8222",
    "libraries": "8231",
    "individual & family social services": "8322",
    "business Associations": "8611",
    "professional Membership Organizations": "8621",
    "labor Unions And Similar Labor Organizations": "8631",
    "civic, Social, And Fraternal Associations": "8641",
    "political Organizations": "8651",
    "religious Organizations1": "8661",
    "membership organizations, n.e.c.": "8699",
    "single-family housing construction (pt)": "8741",
    "private Households": "8811",
    "executive Offices": "9111",
    "legislative Bodies": "9121",
    "executive and Legislative Bodies Combined": "9131",
    "general Gov't - Not Elsewhere Classified": "9199",
    "courts": "9211",
    "police Protection": "9221",
    "legal Counsel and Prosecution": "9222",
    "correctional Institutions": "9223",
    "fire Protection": "9224",
    "public Order and Safety - Not Elsewhere Classified": "9229",
    "public Finance, Taxation, And Monetary Policy": "9311",
    "administration Of Educational Programs": "9411",
    "administration Of Public Health Programs": "9431",
    "administration Of Social, Human Resource": "9441",
    "administration Of Veteran's Affairs except Health Insurance": "9451",
    "air and Water Resource and Solid Waste Management": "9511",
    "land, Mineral, Wildlife, and Forest Conservation": "9512",
    "administration Of Housing And Urban Programs": "953",
    "administration of Housing Programs": "9531",
    "administration of Urban Planning and Community and Rural Development": "9532",
    "administration Of General Economic Programs": "9611",
    "regulation And Administration Of Transportation": "962",
    "regulation And Administration Of Transportation1": "9621",
    "regulation and Administration of Communications, Electric, Gas, and Other Utilities1": "963",
    "regulation and Administration of Communications, Electric, Gas, and Other Utilities": "9631",
    "regulation of Agricultural Marketing and Commodities": "964",
    "regulation of Agricultural Marketing and Commodities1": "9641",
    "regulation, Licensing, and Inspection of Miscellaneous Commercial Sectors1": "965",
    "regulation, Licensing, and Inspection of Miscellaneous Commercial Sectors": "9651",
    "space Research And Technology": "966",
    "space Research And Technology1": "9661",
    "national Security": "9711",
    "international Affairs": "9721",
    "nonclassifiable Establishments": "9999"
}